Projeto4
…
## # A tibble: 3  5
##                   cand_nm     Media Mediana      Total Contagem
##                    <fctr>     <dbl>   <dbl>      <dbl>    <int>
## 1        Sanders, Bernard  47.83070      27 5047239.03   105523
## 2 Clinton, Hillary Rodham  68.80352      25  655835.18     9532
## 3        Trump, Donald J. 103.79185      50   18474.95      178

Tabela de estatisticas de doacoes agrupadas por candidato e ocupacao

## Source: local data frame [30 x 6]
## Groups: cand_nm [3]
## 
##                    cand_nm     contbr_occupation     Media Mediana
##                     <fctr>                <fctr>     <dbl>   <dbl>
## 1  Clinton, Hillary Rodham              ATTORNEY 116.20136   50.00
## 2         Sanders, Bernard              ATTORNEY  73.57675   35.00
## 3         Trump, Donald J.              ATTORNEY 188.53353  100.00
## 4  Clinton, Hillary Rodham              ENGINEER  91.41496   50.00
## 5         Sanders, Bernard              ENGINEER  58.79195   27.00
## 6         Trump, Donald J.              ENGINEER 174.40533   99.56
## 7  Clinton, Hillary Rodham             HOMEMAKER  88.90811   25.00
## 8         Sanders, Bernard             HOMEMAKER  48.13213   27.00
## 9         Trump, Donald J.             HOMEMAKER 138.07341   80.00
## 10 Clinton, Hillary Rodham INFORMATION REQUESTED 151.17607  100.00
## # ... with 20 more rows, and 2 more variables: Total <dbl>, Contagem <int>
…
